id;date_login;ip
1;2019-11-25T07:58:56;artificial intelligence
2;2019-11-25T18:13:17;Handcrafted Wooden Shirt Architect
3;2019-11-25T07:13:56;Books Paradigm invoice
4;2019-11-25T09:33:54;Fork Borders
5;2019-11-25T18:39:46;Tugrik Wooden
6;2019-11-26T05:40:32;budgetary management
7;2019-11-25T13:28:58;lime Chilean Peso Unidades de fomento Officer
8;2019-11-26T04:08:29;Swiss Franc communities XSS
9;2019-11-26T02:08:36;Qatari Rial
10;2019-11-25T10:16:49;Identity Lek Bedfordshire
